  -100                -0      -19.89908237      -19.89908237      -19.89908237      -19.89908237        2.01770922       3.254102663
   -99      -15.14898894      -15.14898894      -15.14898894      -15.14898894      -15.14898894     0.08339666645       2.951853984
   -98      -14.23935592      -14.23935592      -14.23935592      -14.23935592      -14.23935592      -1.268199371       2.680342164
   -97      -12.98756554      -12.98756554      -12.98756554      -12.98756554      -12.98756554      -5.896796465       2.452920226
   -96      -13.56545369      -13.56545369      -13.56545369      -13.56545369      -1.244295686      -11.14067872       2.257647351
   -95      -8.904840273      -8.904840273      -8.904840273      -8.904840273       7.227552825      -12.85739337       2.103884542
   -94      -6.214130576      -6.214130576      -6.214130576      -6.214130576       5.274191423      -12.91208266       2.005038961
   -93      -4.151989227      -4.151989227      -4.151989227      -4.151989227       3.707951484       -11.6796761       1.944926571
   -92      -2.900439483      -2.900439483      -2.900439483      -2.900439483      0.7706895767      -10.36934871        1.86621807
   -91      -2.016770105      -2.016770105      -2.016770105      -2.016770105     -0.7198845655       -8.64866828       1.803843205
   -90      -1.387435763      -1.387435763      -1.387435763      -1.387435763     -0.8482877251      -7.002276538        1.72758335
   -89     -0.9733107606     -0.9733107606     -0.9733107606     -0.9733107606     -0.8468419974      -5.679273168       1.665517105
   -88     -0.6906203731     -0.6906203731     -0.6906203731     -0.6906203731     -0.4100738358      -4.612829596       1.599351212
   -87      -0.484043147      -0.484043147      -0.484043147      -0.484043147      -0.156220368      -3.691700669        1.53741627
   -86     -0.3408146404     -0.3408146404     -0.3408146404     -0.3408146404    -0.01954813605       -2.93240247       1.474128864
   -85     -0.2427319612     -0.2427319612     -0.2427319612     -0.2427319612     0.05039345671       -2.32383201       1.417056593
   -84     -0.1777018411     -0.1777018411     -0.1777018411     -0.1777018411     0.04422419284      -1.867800876       1.366459961
   -83     -0.1338044091     -0.1338044091     -0.1338044091     -0.1338044091     0.03890325584      -1.510082897       1.321307279
   -82      -0.103642631      -0.103642631      -0.103642631      -0.103642631     0.02163919477       -1.24108133       1.282503083
   -81     -0.0821947969     -0.0821947969     -0.0821947969     -0.0821947969     0.01040198812      -1.022556455       1.246578511
   -80    -0.06354942294    -0.06354942294    -0.06354942294    -0.06354942294    0.004615795415      -0.809582924       1.208247366
   -79    -0.04958896932    -0.04958896932    -0.04958896932    -0.04958896932   0.0009039883506     -0.6302941439       1.170636852
   -78    -0.03649546421    -0.03649546421    -0.03649546421    -0.03649546421    0.001555067393     -0.4406773117       1.128838206
   -77    -0.02681157467    -0.02681157467    -0.02681157467    -0.02681157467    0.001770810863     -0.2814179553       1.087015718
   -76    -0.02061141784    -0.02061141784    -0.02061141784    -0.02061141784    0.001823515698     -0.1665358796       1.056089206
   -75    -0.01600477797    -0.01600477797    -0.01600477797    -0.01600477797    0.001729256209    -0.06832833665       1.024386124
   -74     -0.0128611131     -0.0128611131     -0.0128611131     -0.0128611131   6.032243906e-05     0.00859563627      0.9994032585
   -73    -0.01049499869    -0.01049499869    -0.01049499869    -0.01049499869    -0.00107500809     0.07619249741      0.9729071714
   -72   -0.008411693294   -0.008411693294   -0.008411693294   -0.008411693294   -0.003956666234      0.1419906145      0.9473121868
   -71   -0.006795492116   -0.006795492116   -0.006795492116  -0.0002928468676   -0.005622323035      0.2012476909      0.9194629236
   -70   -0.005648587638   -0.005648587638   -0.005648587638    0.005351460637   -0.007403374945      0.2524695002      0.8957186019
   -69   -0.004678671161   -0.004678671161   -0.004678671161     0.00423284528   -0.008004462966      0.3009691349      0.8687343558
   -68   -0.004291303339   -0.004291303339   -0.004291303339    0.003494612522   -0.008150883427      0.3367305488       0.849012454
   -67   -0.003837923115   -0.003837923115   -0.003837923115   0.0001558248118   -0.007428360966      0.3742747111      0.8246037161
   -66   -0.003749233185   -0.003749233185   -0.003749233185   -0.002730845963   -0.005947102961      0.4034854977      0.8053476334
   -65   -0.003428164227   -0.003428164227   -0.003428164227   -0.003184930394   -0.003074085581      0.4377972962      0.7796555405
   -64   -0.003294014794   -0.003294014794   -0.003294014794   -0.003625675384   0.0007343102389       0.467599144      0.7561901896
   -63   -0.002844401167   -0.002844401167   -0.002844401167   -0.001853269505    0.007178078487      0.5028814523      0.7258246371
   -62   -0.002576565575   -0.002576565575   -0.002576565575  -0.0003764927226     0.01458939215      0.5332514164      0.6974433632
   -61   -0.002057571952   -0.002057571952   -0.002057571952   0.0005379622423     0.02520025192      0.5659539841       0.665007033
   -60   -0.001776769215   -0.001776769215   -0.001776769215      0.0012221483     0.03650721487      0.5923529684      0.6357058811
   -59   -0.001468199459   -0.001468199459   -0.001468199459    0.001044101307     0.04897089228      0.6165249337      0.6079225639
   -58   -0.001339395646   -0.001339395646   -0.001339395646   0.0008853519502     0.06207109156      0.6358508094      0.5822438343
   -57   -0.001283210021   -0.001283210021   -0.001283210021   0.0005537241874     0.07448698389      0.6523436786      0.5600236645
   -56   -0.001293063043   -0.001293063043   -0.001293063043   0.0002397104215     0.08815373438      0.6661464119      0.5377379115
   -55  -0.0009638634413  -0.0009638634413  -0.0009638634413   6.066986572e-05      0.1081376081      0.6831815586      0.5096250335
   -54   -0.000692220322   -0.000692220322   -0.000692220322  -8.326796242e-05       0.129771419      0.6966553551      0.4813551162
   -53   9.851372011e-05   9.851372011e-05   9.851372011e-05  -0.0001390939181      0.1635439637      0.7133391176      0.4444776317
   -52    0.000763716849    0.000763716849    0.000763716849  -0.0002274814399      0.1985227488       0.724120898      0.4091655717
   -51    0.001105015241    0.001105015241    0.001105015241  -0.0003730375817      0.2287771411      0.7312224275      0.3834262713
   -50     0.00130044832     0.00130044832     0.00130044832  -0.0005187634441      0.2577224442      0.7338947143      0.3592631524
   -49    0.001310979807    0.001310979807    0.001310979807  -0.0004955073523      0.2834944829      0.7355624998      0.3406848802
   -48    0.001225967012    0.001225967012    0.001225967012  -0.0004724514594      0.3074663607      0.7339380972       0.322837241
   -47     0.00121321799     0.00121321799     0.00121321799   0.0002228936848      0.3347104065       0.732003454      0.3050495829
   -46    0.001160075927    0.001160075927   0.0007023606536   0.0008778778472      0.3606849511      0.7266625553      0.2873350676
   -45    0.001000273384    0.001000273384   0.0003645499303    0.002598589798      0.3850402019      0.7217647058      0.2728838734
   -44   0.0008783557904   0.0008783557904  -0.0003872793499    0.004174099967      0.4093661129      0.7135254138      0.2574975332
   -43   0.0005025702338   0.0005025702338   -0.000880384846    0.006423371823      0.4274507341      0.7077075002      0.2472240342
   -42   0.0002859132685   0.0002859132685   -0.001118482608    0.008615141593      0.4484567174      0.6980649807      0.2343538844
   -41  -0.0001325966365  -0.0001325966365   -0.001664288759     0.01119491615      0.4647283764      0.6907490985      0.2247417605
   -40  -0.0002637620038  -0.0002637620038   -0.001384157787     0.01464673677      0.4871916854      0.6778486042      0.2114016741
   -39  -0.0005172012342  -0.0005172012342   -0.001282324158     0.01884544471      0.5070278844      0.6657389969      0.1997290265
   -38  -0.0004001710672  -0.0004001710672  -0.0004141566577     0.02544904041       0.534103453      0.6466088589      0.1846200358
   -37  -0.0004178006413  -0.0004178006413   0.0003472748038     0.03308889292      0.5576014764      0.6280629753      0.1714296488
   -36  -0.0001543477826  -0.0001543477826   0.0006790496675     0.04366374629      0.5848317027      0.6047834836      0.1567690778
   -35  -7.818677305e-05  -7.818677305e-05   0.0009052562974      0.0550110869      0.6068200902      0.5831657722      0.1443725262
   -34   1.904066904e-05   1.904066904e-05   0.0006985764898     0.06693743484      0.6270260286      0.5624757675      0.1333258579
   -33  -3.005320723e-05  -3.005320723e-05   0.0005207780928     0.07935598754      0.6431516439      0.5429484483      0.1235656666
   -32   -0.000160977273   -0.000160977273   0.0003275657334     0.09048712041      0.6566032919      0.5263987812      0.1160002465
   -31  -0.0003459695366  -0.0003459695366   0.0001217565197      0.1025446201      0.6679610686       0.509397474      0.1083966623
   -30  -0.0001796278051  -0.0001796278051   3.501265382e-06      0.1207986172      0.6830146203      0.4862661629     0.09971796412
   -29  -5.769804271e-05  -5.769804271e-05  -9.671844709e-05      0.1405581777      0.6950388409      0.4624721789     0.09132534124
   -28   0.0006146796909   0.0006146796909  -0.0001636291787       0.172835402      0.7108705829      0.4293693268     0.08145786596
   -27    0.001177845818    0.001177845818  -0.0002580729619       0.206355675      0.7211486009      0.3972305619     0.07258075427
   -26    0.001452526078    0.001452526078  -0.0004088740183      0.2356514851      0.7279892937      0.3735215328     0.06658792267
   -25    0.001592717922    0.001592717922  -0.0005574581821      0.2637142956      0.7305606475      0.3510738805      0.0610881273
   -24    0.001555386412    0.001555386412  -0.0005057539132      0.2886193571      0.7321434429      0.3338620095     0.05747410834
   -23    0.001431010475    0.001431010475  -0.0004624770175      0.3118119049      0.7305605726      0.3171950711      0.0538825995
   -22     0.00138041527     0.00138041527   0.0002953268101      0.3382331417      0.7286910865      0.3004646909      0.0509997727
   -21    0.001295844658    0.000719460706   0.0009887949011      0.3634761099      0.7235293219      0.2836706206     0.04788703362
   -20    0.001113154029   0.0002798108302    0.002768324835      0.3872666392      0.7187616863      0.2698723131     0.04592938962
   -19   0.0009714302597  -0.0004647476187     0.00437751474      0.4110833636      0.7107408792      0.2550795117     0.04347152492
   -18   0.0005847837502  -0.0009552709062    0.006671646134      0.4288639975       0.705037707      0.2451588887     0.04220205837
   -17   0.0003581711336   -0.001140422922    0.008893429182      0.4495895166      0.6955814683      0.2326314475     0.04020522459
   -16  -6.549747336e-05   -0.001643899746     0.01150857638       0.465691846      0.6883689618      0.2232382515     0.03901038089
   -15  -0.0002020276602   -0.001348613193     0.01498705223       0.487990772      0.6756382695      0.2101188327     0.03698651546
   -14  -0.0004589244168   -0.001232896367     0.01921902704      0.5077045498      0.6636504363      0.1986125623     0.03546007636
   -13  -0.0003462410987  -0.0003823591536     0.02584506402      0.5346575308      0.6447026087      0.1836667101     0.03313232471
   -12  -0.0003669988074   0.0003642040786     0.03351648709      0.5580556374      0.6263003343      0.1706035121     0.03126134573
   -11   -0.000107726017   0.0006823813014     0.04410789077      0.5851884336      0.6032000936      0.1560637987     0.02892825204
   -10  -3.454005302e-05   0.0008969738322     0.05547780492      0.6070966094      0.5817246672       0.143758969     0.02706983525
    -9    5.91935924e-05    0.000689159125     0.06741407536      0.6272303631      0.5611776675      0.1328016877     0.02525437631
    -8   7.433722748e-06   0.0005102882278     0.07984276851      0.6432953989      0.5417684122      0.1231125824     0.02374339123
    -7  -0.0001263423761   0.0003205676565      0.0909751826      0.6566940822      0.5253287557       0.115618359     0.02241143249
    -6  -0.0003138305151   0.0001177520084      0.1030304718      0.6680071797       0.508424214      0.1080759786      0.0211836299
    -5  -0.0001504843706   1.376583225e-06      0.1212717857      0.6830231332       0.485408473     0.09945624639     0.01947291289
    -4   -3.14655711e-05  -9.728059156e-05      0.1410129018      0.6950151018      0.4617200908     0.09111514262      0.0178545834
    -3   0.0006374460007  -0.0001647232028       0.173259487      0.7108246773      0.4287424179      0.0812915653     0.01555096453
    -2    0.001197388375  -0.0002595347362      0.2067448639      0.7210858537      0.3967131631     0.07245108549     0.01344706024
    -1    0.001469215322   -0.000410623359      0.2360042216      0.7279149943      0.3730911661     0.06648398577     0.01184994974
     0    0.001606982775  -0.0005593842808       0.264031753      0.7304789699      0.3507170193      0.0610048579     0.01042197503
     1    0.001567521881  -0.0005063118178      0.2889023737      0.7320577602      0.3335653135     0.05740872715    0.009279020673
     2    0.001441293652  -0.0004620348188      0.3120605388       0.730473434      0.3169509985     0.05383168369    0.008259019291
     3    0.001388933376   0.0002989831739      0.3384471803      0.7286068703      0.3002689364     0.05096206178    0.007178085423
     4   0.0007204106199   0.0009945478038      0.3636584927      0.7234502917         0.2835157      0.0478595145    0.006145795053
     5    0.000275648067    0.002777018035      0.3874181026      0.7186897717      0.2697520963     0.04590953323    0.005250470841
     6  -0.0004684877128    0.004387645784      0.4112056704      0.7106779575      0.2549892741     0.04345767158    0.004351710684
     7  -0.0009584849077     0.00668259232      0.4289587205      0.7049844114      0.2450927695     0.04219224383    0.003718538535
     8   -0.001141282458     0.00890395947      0.4496599771      0.6955392251      0.2325854751     0.04019860091    0.002948193749
     9   -0.001643444265     0.01151728566      0.4657385056      0.6883387569       0.223209383     0.03900619378    0.002360449977
    10    -0.00134807672     0.01499293348       0.488016671       0.675620709      0.2101037813     0.03698432111    0.001556200643
    11   -0.001232706445     0.01922063781      0.5077103725      0.6636461682      0.1986093215     0.03545959085   0.0008467120254
    12  -0.0003825636415      0.0258422221      0.5346487483      0.6447088727      0.1836711805     0.03313299956  -8.399659128e-05
    13   0.0003638894571     0.03350793237       0.558033486      0.6263164818      0.1706141546     0.03126299004  -0.0008957596918
    14   0.0006822724835     0.04409496716      0.5851594817      0.6032204775      0.1560766825     0.02893024564    -0.00177725551
    15   0.0008972175609     0.05545952849      0.6070611796      0.5817488384       0.143773712     0.02707213999   -0.002505805212
    16   0.0006894910329     0.06739246288      0.6271929424       0.561201481      0.1328157175     0.02525660364   -0.003105793496
    17     0.00051072103     0.07981731302       0.643255727      0.5417919678       0.123126032     0.02374558552   -0.003616691021
    18   0.0003208845292      0.0909469022      0.6566539293      0.5253512291      0.1156302993     0.02241350195   -0.003964993206
    19   0.0001179520603      0.1029994782      0.6679665227      0.5084453427      0.1080863466     0.02118558628   -0.004306271964
    20   1.462728028e-06      0.1212464675       0.682988329      0.4854187868     0.09946184863     0.01947408548   -0.004612686264
    21  -9.726177682e-05      0.1409949325      0.6949850485      0.4617191474     0.09111655254     0.01785498113   -0.004870440245
    22  -0.0001647361591      0.1732613807       0.710803609      0.4287200338     0.08128655516     0.01554990804   -0.005007399078
    23  -0.0002596265381      0.2067670162      0.7210697343      0.3966725433     0.07244135411     0.01344479609   -0.005032514127
    24  -0.0004108094627      0.2360403269      0.7279001786      0.3730409853     0.06647208575     0.01184707312   -0.004895685484
    25  -0.0005596734265      0.2640785608      0.7304629827      0.3506612028     0.06099193667     0.01041873566    -0.00472200745
    26  -0.0005064123433       0.288953266      0.7320397232      0.3335099193     0.05739657191    0.009275813702   -0.004490079882
    27  -0.0004619388757      0.3121130169      0.7304528867      0.3168978835     0.05382063495    0.008255963307   -0.004261708919
    28   0.0002998969082      0.3385000345      0.7285843704      0.3002193916     0.05095253088     0.00717525032   -0.003976681688
    29   0.0009954179123      0.3636826946      0.7234308305      0.2834891081     0.04785481636    0.006144359084   -0.003683401052
    30    0.002778182628       0.387434759      0.7186721867      0.2697326878     0.04590631299    0.005249454135   -0.003412537618
    31    0.004390247431      0.4112347627      0.7106570284      0.2549641999     0.04345379431    0.004350312592   -0.003112188818
    32    0.006687196016      0.4289976188      0.7049601289      0.2450642385     0.04218799405    0.003716897841   -0.002915029069
    33    0.008908048179      0.4496861048      0.6955205156      0.2325667684     0.04019588456    0.002947112266   -0.002644424285
    34      0.0115189761      0.4657463539      0.6883307165      0.2232029981     0.03900524788    0.002360096327   -0.002454238921
    35     0.01499296526      0.4880152295      0.6756179145      0.2101027688     0.03698414969    0.001556180922   -0.002151139145
    36     0.01921834634      0.5077004165      0.6636495126      0.1986130262     0.03546012408   0.0008469869944   -0.001908951483
    37     0.02584386469      0.5346524906      0.6447031942      0.1836679387     0.03313249432  -8.416792723e-05   -0.001541455309
    38      0.0335118457      0.5580424919      0.6263074458      0.1706087784     0.03126214767  -0.0008960741835   -0.001256264991
    39     0.04409780172       0.585165136      0.6032150443      0.1560735705     0.02892975726   -0.001777437386   -0.000899282037
    40     0.05545961238      0.6070616027      0.5817490691      0.1437737426     0.02707214717   -0.002505809333  -0.0006361063726
    41     0.06739165667      0.6271920536      0.5612030005      0.1328164162     0.02525671872   -0.003105761088  -0.0003725348444
    42     0.07981588322      0.6432542263      0.5417941543      0.1231270193     0.02374575172   -0.003616646276  -0.0001741382712
    43     0.09094588246      0.6566530016      0.5253526286      0.1156308817     0.02241360523    -0.00396496886   9.597294569e-06
    44      0.1029987452      0.6679659024       0.508446213      0.1080866831     0.02118565028   -0.004306258821   0.0001534229287
    45      0.1212452991      0.6829874252      0.4854199904     0.09946227898     0.01947417373    -0.00461267182   0.0003609165897
    46      0.1409932407      0.6949838879      0.4617207098     0.09111705663     0.01785509481   -0.004870427526   0.0005341604752
    47      0.1732589784      0.7108021317      0.4287219543     0.08128714187     0.01555004877   -0.005007389182   0.0007875302399
    48      0.2067641595       0.721068136      0.3966745084      0.0724419202     0.01344494218   -0.005032510437   0.0009940212742
    49      0.2360375333      0.7278986163      0.3730425656     0.06647253272     0.01184719503   -0.004895687096    0.001159619274
    50      0.2640782104      0.7304619374      0.3506606758     0.06099184332     0.01041871918   -0.004722000494    0.001166199663
    51      0.2889534155      0.7320386338      0.3335089517     0.05739637919    0.009275770145   -0.004490068372    0.001159727503
    52      0.3121121284       0.730451791      0.3168977115     0.05382061965    0.008255970302   -0.004261706467    0.001160324015
    53      0.3385023715      0.7285826829      0.3002167107     0.05095202057    0.007175104856   -0.003976642586    0.001166374043
    54      0.3637009845      0.7234264433      0.2834759513     0.04785246922    0.006143555515   -0.003683176989    0.001166554083
    55      0.3875340089      0.7186514323      0.2696707766     0.04589612657    0.005245549232   -0.003411387039     0.00117158864
    56      0.4114662658       0.710597834      0.2548296674     0.04343342086    0.004341759016   -0.003109446438    0.001170951085
    57      0.4294956215      0.7048148681      0.2447942625     0.04214874824    0.003699606154   -0.002909301636    0.001173868527
    58      0.4505471641      0.6952269371       0.232126305     0.04013396566    0.002918315327   -0.002634571061    0.001172112618
    59      0.4671334866      0.6878044737      0.2225368048     0.03891111321    0.002315516844   -0.002438633445    0.001172894161
    60      0.4901970827      0.6746906935      0.2091056179     0.03684226001    0.001488400996   -0.002126524816    0.001170134301
    61      0.5110460581      0.6620893357      0.1971653738     0.03524816927    0.000746808599   -0.001872431311    0.001168650807
    62      0.5399334256      0.6420051672      0.1814545305      0.0328039915   -0.000236895504   -0.001485057914    0.001165572648
    63      0.5661035952      0.6218335068      0.1673313489     0.03076242881   -0.001120931199   -0.001173142875    0.001163038448
    64      0.5974164743      0.5958627748      0.1511440386     0.02817297503   -0.002106870758  -0.0007774063558    0.001162253564
    65      0.6248193417      0.5703127747      0.1366545228     0.02596234298   -0.002965630052  -0.0004601809698     0.00116132327
    66      0.6516399012      0.5443258766      0.1231449403      0.0237155691   -0.003695682816   -0.000132570875    0.001163934422
    67      0.6758140291      0.5178736153      0.1103938943     0.02165019199   -0.004339987632   0.0001368794757    0.001165397633
    68       0.697883653       0.493071934      0.1001652342     0.01970867727   -0.004785115785    0.000389214742     0.00117015977
    69      0.7194287729      0.4657314365     0.08976587794     0.01771387663   -0.005195784851   0.0006256144662    0.001173756704
    70      0.7498760058       0.426417044     0.07676724285     0.01480048354   -0.005545762259   0.0009791327954    0.001185459627
    71      0.7804228506      0.3817761116     0.06387036181     0.01164315478   -0.005737838135    0.001327089101    0.001199321015
    72      0.8270502419      0.3132509497      0.0447017283    0.006670681826    -0.00579263656    0.001890916191    0.001239067075
    73       0.874171357      0.2352002856     0.02505278879    0.001105363167   -0.005456211723    0.002521468557    0.001295855023
    74      0.9182806579      0.1619348987    0.007413414128   -0.004156187688   -0.004604822227    0.003128699889    0.001373916478
    75      0.9617672478     0.08090359078    -0.01134124051    -0.01010145445    -0.00321849504    0.002624777869      0.0014722309
    76       1.005460026   -0.001237955307    -0.02574089709    -0.01625774178   -0.001461646219    0.001598779174    0.001598779174
    77       1.049066593    -0.09313326062    -0.04097120778    -0.02316809572    0.001002157732    0.001756070607    0.001756070607
    78       1.103230733     -0.2085058937    -0.05386524945    -0.03216660226    0.003961479107    0.001997993094    0.001997993094
    79        1.16024897     -0.3440696523    -0.06689339247    -0.04365972834    0.008179712008    0.002324211926    0.002324211926
    80       1.223449307      -0.496133079     -0.0782532327    -0.05731419878     0.01276026854    0.002769049356    0.002769049356
    81       1.294400182     -0.6842640481    -0.09071497584     -0.0751240874     0.01950717475    0.003409585859    0.003409585859
    82       1.364608427     -0.8740303946     -0.1060415675    -0.09433411651     0.02585450648    0.004182153295    0.004182153295
    83       1.448301989      -1.118054651     -0.1267259733     -0.1228419394     0.03539247607    0.005340532941    0.005340532941
    84       1.535379481      -1.380190699     -0.1567377684     -0.1568472509     0.04655716293    0.006815716756    0.006815716756
    85       1.639649514      -1.712211272     -0.1959443904     -0.2020182917     0.06269021238    0.009011397339    0.009011397339
    86       1.756843096      -2.101699556     -0.2506373302      -0.260810932     0.08076448571     0.01207324536     0.01207324536
    87       1.884226065      -2.545177211     -0.3081431858     -0.3267935468      0.1020401076     0.01618064879     0.01618064879
    88       2.020053339      -3.039890345      -0.381183622     -0.4061784309      0.1252542915        0.02156455        0.02156455
    89       2.154288145       -3.54950778     -0.4450032838     -0.4826648448      0.1472610623     0.02795684415     0.02795684415
    90       2.277253959      -4.039785874     -0.5133092071     -0.5556214402      0.1727216595     0.03493416433     0.03493416433
    91       2.432939734      -4.673871994     -0.6132377293     -0.6453181005      0.2099154344     0.04519577508     0.04519577508
    92       2.584191839      -5.327421236     -0.7355415589     -0.7329956632      0.2450381552     0.05720288335     0.05720288335
    93        2.83565804      -6.415690639     -0.9969776788     -0.9171251687      0.3201944912     0.08082128913     0.08082128913
    94       3.145357076      -7.836208002      -1.426218234      -1.178331866      0.4474169694      0.1184213485      0.1184213485
    95       3.574717475      -9.792744871      -2.145752206      -1.516439589      0.6597390172      0.1834108767      0.1834108767
    96       4.164165802      -12.58732651      -3.486844993      -2.043791424       1.039898177      0.3055472626      0.3055472626
    97       4.720116248      -15.18857851      -4.964363201      -2.391212488         1.4487909      0.4516305959      0.4516305959
    98       5.383018788       -18.3587867      -7.237110715      -2.739689086       2.101177773      0.6813703982      0.6813703982
    99       5.947933696      -21.00916451      -9.382086421       -2.63023698       2.720604953      0.9176489129      0.9176489129
   100       6.515684496      -23.67245482      -12.01276723      -2.165902125       2.321082454       1.198684758  8.800060027e-307
